[gd_scene load_steps=5 format=3 uid="uid://kqdxx5mcuk7q"]

[ext_resource type="Texture2D" uid="uid://u7etyi32wa43" path="res://assets/kenney_pixel-platformer/Tiles/tile_0151.png" id="1_5725w"]
[ext_resource type="Texture2D" uid="uid://dtfwwx5rmh62a" path="res://assets/kenney_pixel-platformer/Tiles/tile_0152.png" id="2_ju76a"]
[ext_resource type="Script" path="res://src/items/coin.gd" id="3_s6ci0"]

[sub_resource type="SpriteFrames" id="SpriteFrames_8mtsp"]
animations = [{
"frames": [{
"duration": 1.0,
"texture": ExtResource("1_5725w")
}, {
"duration": 1.0,
"texture": ExtResource("2_ju76a")
}],
"loop": true,
"name": &"default",
"speed": 5.0
}]

[node name="Coin" type="AnimatedSprite2D"]
sprite_frames = SubResource("SpriteFrames_8mtsp")
autoplay = "default"
frame = 1
frame_progress = 0.862299
script = ExtResource("3_s6ci0")
