[gd_scene load_steps=7 format=3 uid="uid://2hc76oxim15p"]

[ext_resource type="Script" path="res://src/mob/cyborg.gd" id="1_qem33"]
[ext_resource type="Texture2D" uid="uid://cjybuf1h5ovlo" path="res://assets/kenney_pixel-platformer/Characters/character_0009.png" id="1_t5dr4"]
[ext_resource type="Texture2D" uid="uid://cfh1401o084is" path="res://assets/kenney_pixel-platformer/Characters/character_0010.png" id="2_4qsp7"]
[ext_resource type="PackedScene" uid="uid://dkonx4frjd8iy" path="res://src/mob/mine.tscn" id="2_ha3fa"]

[sub_resource type="SpriteFrames" id="SpriteFrames_50eb3"]
animations = [{
"frames": [{
"duration": 1.0,
"texture": ExtResource("1_t5dr4")
}, {
"duration": 1.0,
"texture": ExtResource("2_4qsp7")
}],
"loop": true,
"name": &"default",
"speed": 5.0
}]

[sub_resource type="CapsuleShape2D" id="CapsuleShape2D_bktwx"]
radius = 21.0
height = 48.0

[node name="Cyborg" type="CharacterBody2D"]
position = Vector2(-9, -15)
collision_layer = 516
collision_mask = 2053
script = ExtResource("1_qem33")
weapon = ExtResource("2_ha3fa")

[node name="AnimatedSprite2D" type="AnimatedSprite2D" parent="."]
scale = Vector2(2, 2)
sprite_frames = SubResource("SpriteFrames_50eb3")

[node name="CollisionShape2D" type="CollisionShape2D" parent="."]
shape = SubResource("CapsuleShape2D_bktwx")

[node name="WeaponTimer" type="Timer" parent="."]
process_callback = 0
wait_time = 3.0
autostart = true

[node name="WeaponMarker2D" type="Marker2D" parent="."]
position = Vector2(-18, 14)

[node name="DirectionTimer" type="Timer" parent="."]
wait_time = 0.33
autostart = true

[node name="VisibleOnScreenEnabler2D" type="VisibleOnScreenEnabler2D" parent="."]
position = Vector2(-413, -2.49999)
scale = Vector2(73.4, 22.35)

[connection signal="timeout" from="WeaponTimer" to="." method="_on_weapon_timer_timeout"]
[connection signal="timeout" from="DirectionTimer" to="." method="_on_direction_timer_timeout"]
